\relax 
\providecommand\hyper@newdestlabel[2]{}
\providecommand\HyperFirstAtBeginDocument{\AtBeginDocument}
\HyperFirstAtBeginDocument{\ifx\hyper@anchor\@undefined
\global\let\oldcontentsline\contentsline
\gdef\contentsline#1#2#3#4{\oldcontentsline{#1}{#2}{#3}}
\global\let\oldnewlabel\newlabel
\gdef\newlabel#1#2{\newlabelxx{#1}#2}
\gdef\newlabelxx#1#2#3#4#5#6{\oldnewlabel{#1}{{#2}{#3}}}
\AtEndDocument{\ifx\hyper@anchor\@undefined
\let\contentsline\oldcontentsline
\let\newlabel\oldnewlabel
\fi}
\fi}
\global\let\hyper@last\relax 
\gdef\HyperFirstAtBeginDocument#1{#1}
\providecommand\HyField@AuxAddToFields[1]{}
\providecommand\HyField@AuxAddToCoFields[2]{}
\providecommand\babel@aux[2]{}
\@nameuse{bbl@beforestart}
\citation{*}
\bibstyle{siam}
\bibdata{poster_houches_2023_topo_gap}
\bibcite{fukui05}{\hyperlink {beamerbibfukui05}{1}}
\bibcite{milonni73}{\hyperlink {beamerbibmilonni73}{2}}
\bibcite{perczel17}{\hyperlink {beamerbibperczel17}{3}}
\babel@aux{english}{}
\newlabel{fig:lattice}{{1}{1}{}{Doc-Start}{}}
\newlabel{fig:lattice@cref}{{[figure][1][]1}{[1][1][]1}}
\@writefile{snm}{\beamer@slide {fig:lattice}{1}}
\newlabel{fig:bd}{{2}{1}{}{Doc-Start}{}}
\newlabel{fig:bd@cref}{{[figure][2][]2}{[1][1][]1}}
\@writefile{snm}{\beamer@slide {fig:bd}{1}}
\newlabel{eqn:wgap}{{1}{1}{}{Doc-Start}{}}
\newlabel{eqn:wgap@cref}{{}{[1][1][]1}}
\@writefile{snm}{\beamer@slide {eqn:wgap}{1}}
\newlabel{fig:gap}{{3}{1}{}{Doc-Start}{}}
\newlabel{fig:gap@cref}{{[figure][3][]3}{[1][1][]1}}
\@writefile{snm}{\beamer@slide {fig:gap}{1}}
\newlabel{fig:saturation}{{4}{1}{}{Doc-Start}{}}
\newlabel{fig:saturation@cref}{{[figure][4][]4}{[1][1][]1}}
\@writefile{snm}{\beamer@slide {fig:saturation}{1}}
\newlabel{fig:bd_2}{{6}{1}{}{Doc-Start}{}}
\newlabel{fig:bd_2@cref}{{[figure][6][]6}{[1][1][]1}}
\@writefile{snm}{\beamer@slide {fig:bd_2}{1}}
\@writefile{snm}{\beamer@slide {chern}{1}}
\newlabel{fig:bd_sites_A}{{8}{1}{}{Doc-Start}{}}
\newlabel{fig:bd_sites_A@cref}{{[figure][8][]8}{[1][1][]1}}
\@writefile{snm}{\beamer@slide {fig:bd_sites_A}{1}}
\@writefile{nav}{\headcommand {\beamer@subsectionpages {1}{0}}}
\newlabel{fig:gmax}{{9}{1}{}{Doc-Start}{}}
\newlabel{fig:gmax@cref}{{[figure][9][]9}{[1][1][]1}}
\@writefile{snm}{\beamer@slide {fig:gmax}{1}}
\newlabel{g3dcutplates}{{1}{1}{}{Doc-Start}{}}
\newlabel{g3dcutplates@cref}{{[subsection][1][0]1}{[1][1][]1}}
\@writefile{snm}{\beamer@slide {g3dcutplates}{1}}
\@writefile{nav}{\headcommand {\slideentry {0}{1}{0}{1/1}{}{0}}}
\@writefile{nav}{\headcommand {\beamer@framepages {1}{1}}}
\@writefile{nav}{\headcommand {\beamer@partpages {1}{1}}}
\@writefile{nav}{\headcommand {\beamer@subsectionpages {1}{1}}}
\@writefile{nav}{\headcommand {\beamer@sectionpages {1}{1}}}
\@writefile{nav}{\headcommand {\beamer@documentpages {1}}}
\@writefile{nav}{\headcommand {\gdef \inserttotalframenumber {1}}}
\gdef \@abspage@last{1}
