\relax 
\citation{Smith:2012qr}
\citation{*}
\bibstyle{plain}
\bibdata{sample}
\newlabel{eqn:Einstein}{{1}{1}}
\newlabel{edgek}{{2}{1}}
\newlabel{edgej}{{3}{1}}
\@writefile{lot}{\contentsline {table}{\numberline {1}{\ignorespaces \color  {Green} Table caption\relax }}{1}{}\protected@file@percent }
\@writefile{lof}{\contentsline {figure}{\numberline {1}{\ignorespaces \color  {Green} Figure caption\relax }}{1}{}\protected@file@percent }
\@writefile{lot}{\contentsline {table}{\numberline {2}{\ignorespaces \color  {Green} Table caption\relax }}{1}{}\protected@file@percent }
\@writefile{lof}{\contentsline {figure}{\numberline {2}{\ignorespaces \color  {Green} Figure caption\relax }}{1}{}\protected@file@percent }
\gdef \@abspage@last{1}
