\relax 
\providecommand\zref@newlabel[2]{}
\citation{Loring2011Jan}
\citation{Loring2019Jul}
\citation{Toniolo2022Dec}
\bibstyle{plain}
\bibdata{poster}
\bibcite{Loring2011Jan}{1}
\bibcite{Loring2019Jul}{2}
\bibcite{Toniolo2022Dec}{3}
\pgfsyspdfmark {pgfid1}{10306439}{180775935}
\pgfsyspdfmark {pgfid2}{10306439}{178809855}
\newlabel{eq:W_for_bott}{{2}{1}}
\newlabel{eq:W_for_bott@cref}{{[equation][2][]2}{[1][1][]1}}
\newlabel{eq:bott_index}{{4}{1}}
\newlabel{eq:bott_index@cref}{{[equation][4][]4}{[1][1][]1}}
\newlabel{eq:bott-index-final}{{5}{1}}
\newlabel{eq:bott-index-final@cref}{{[equation][5][]5}{[1][1][]1}}
\gdef \@abspage@last{1}
