\relax 
\providecommand\hyper@newdestlabel[2]{}
\providecommand\HyperFirstAtBeginDocument{\AtBeginDocument}
\HyperFirstAtBeginDocument{\ifx\hyper@anchor\@undefined
\global\let\oldcontentsline\contentsline
\gdef\contentsline#1#2#3#4{\oldcontentsline{#1}{#2}{#3}}
\global\let\oldnewlabel\newlabel
\gdef\newlabel#1#2{\newlabelxx{#1}#2}
\gdef\newlabelxx#1#2#3#4#5#6{\oldnewlabel{#1}{{#2}{#3}}}
\AtEndDocument{\ifx\hyper@anchor\@undefined
\let\contentsline\oldcontentsline
\let\newlabel\oldnewlabel
\fi}
\fi}
\global\let\hyper@last\relax 
\gdef\HyperFirstAtBeginDocument#1{#1}
\providecommand\HyField@AuxAddToFields[1]{}
\providecommand\HyField@AuxAddToCoFields[2]{}
\providecommand\babel@aux[2]{}
\@nameuse{bbl@beforestart}
\citation{*}
\bibstyle{siam}
\bibdata{refstopo}
\bibcite{haldane88}{\hyperlink {beamerbibhaldane88}{1}}
\bibcite{kane05a}{\hyperlink {beamerbibkane05a}{2}}
\bibcite{loring10}{\hyperlink {beamerbibloring10}{3}}
\bibcite{maximo15}{\hyperlink {beamerbibmaximo15}{4}}
\bibcite{skip20}{\hyperlink {beamerbibskip20}{5}}
\bibcite{toniolo22}{\hyperlink {beamerbibtoniolo22}{6}}
\babel@aux{english}{}
\providecommand*\caption@xref[2]{\@setref\relax\@undefined{#1}}
\newlabel{fig:lattice}{{1}{1}{Honeycomb lattice of two-level atoms with interatomic spacing $a$. The lattice can be seen as a superposition of two triangular sublattices $A$ (blue disks) and $B$ (red disks) with atoms $A$ and $B$ having single-atom ground and excited states $|g_ {n} \rangle $ and $|e_{nm} \rangle $ ($m = 0, \pm 1$) with energies $E_g$ and $E_e^{(A,B)} = E_g + \hbar \omega _{A,B}$, respectively. The wavy line indicates coupling of each atom to all the others via the electromagnetic field. The lattice is placed in a static magnetic field $\textbf {B}$ perpendicular to the atomic plane. $\textbf {a}_1$, $\textbf {a}_2$ and $\textbf {a}_3$ are basis vectors of the lattice.\relax }{Doc-Start}{}}
\newlabel{fig:lattice@cref}{{[figure][1][]1}{[1][1][]1}}
\@writefile{snm}{\beamer@slide {fig:lattice}{1}}
\newlabel{greene}{{1}{1}{}{Doc-Start}{}}
\newlabel{greene@cref}{{}{[1][1][]1}}
\@writefile{snm}{\beamer@slide {greene}{1}}
\newlabel{fig:lattice}{{2}{1}{(a) Density of states (DOS) for light in a honeycomb atomic lattice of $N=612$ sites. Blue represents the DOS for a systme with a magnetic field $\Delta _{\mathbf {B}}=12$ and no difference between sites while red represents the case where $\Delta _{AB}=0$ and there is no magnetic field. Dashed rectangle show where the zoom of (b) is made. (c) and (d) are bigger version of the intensity maps shown in (b). As these states are in the gap, they are localized on the edge of the sample\relax }{Doc-Start}{}}
\newlabel{fig:lattice@cref}{{[figure][2][]2}{[1][1][]1}}
\@writefile{snm}{\beamer@slide {fig:lattice}{1}}
\newlabel{eigenr}{{1}{1}{}{Doc-Start}{}}
\newlabel{eigenr@cref}{{}{[1][1][]1}}
\@writefile{snm}{\beamer@slide {eigenr}{1}}
\newlabel{eigenl}{{1}{1}{}{Doc-Start}{}}
\newlabel{eigenl@cref}{{}{[1][1][]1}}
\@writefile{snm}{\beamer@slide {eigenl}{1}}
\newlabel{bott}{{1}{1}{}{Doc-Start}{}}
\newlabel{bott@cref}{{}{[1][1][]1}}
\@writefile{snm}{\beamer@slide {bott}{1}}
\newlabel{vxy}{{1}{1}{}{Doc-Start}{}}
\newlabel{vxy@cref}{{}{[1][1][]1}}
\@writefile{snm}{\beamer@slide {vxy}{1}}
\newlabel{ux}{{1}{1}{}{Doc-Start}{}}
\newlabel{ux@cref}{{}{[1][1][]1}}
\@writefile{snm}{\beamer@slide {ux}{1}}
\newlabel{uy}{{1}{1}{}{Doc-Start}{}}
\newlabel{uy@cref}{{}{[1][1][]1}}
\@writefile{snm}{\beamer@slide {uy}{1}}
\newlabel{proj}{{1}{1}{}{Doc-Start}{}}
\newlabel{proj@cref}{{}{[1][1][]1}}
\@writefile{snm}{\beamer@slide {proj}{1}}
\newlabel{chern_bott}{{3}{1}{(a) Chern number of bands below the gap as function of $\Delta _{\vec {B}}$ and $\Delta _{AB}$. (b) Bott index for a frequency $\omega =\omega _g$ in the center of the gap computed for 180 sites. In both dashed lines show $|\Delta _{\vec {B}}|=|\Delta _{AB}|$\relax }{Doc-Start}{}}
\newlabel{chern_bott@cref}{{[figure][3][]3}{[1][1][]1}}
\@writefile{snm}{\beamer@slide {chern_bott}{1}}
\newlabel{fig50}{{4}{1}{Closing of a topological band gap by disorder. (a) Average Bott index $\langle C_B \rangle $ as a function of disorder strength $W$ for $\Delta _{\vec {B}} = 5$ and $\Delta _{AB} = 0$. The white contour reproduced for reference in all plots (a)--(c) shows the level $\langle C_B \rangle = -0.5$. (b) Average edge DOS. Dashed lines show edge modes predicted by the perturbation theory. Frequencies of the lowest- and highest-frequency edge modes traced up to higher values of $W$ approximate band edges. (c) Average bulk IPR. Deep violet color corresponds to either very low IPR or $\text {DOS} = 0$ (no modes). (d) Average quasimode decay rate in units of the natural decay rate $\Gamma _0$ of an isolated atom. \relax }{Doc-Start}{}}
\newlabel{fig50@cref}{{[figure][4][]4}{[1][1][]1}}
\@writefile{snm}{\beamer@slide {fig50}{1}}
\newlabel{figipr}{{5}{1}{Impact of topological properties on spatial localization of modes. Mean bulk IPR in the vicinity of topologically trivial gaps for (a) $\Delta _{\vec {B}} = 0$, $\Delta _{AB} = 5$ and (b) $\Delta _{\vec {B}} = 5$, $\Delta _{AB} = 10$. \relax }{Doc-Start}{}}
\newlabel{figipr@cref}{{[figure][5][]5}{[1][1][]1}}
\@writefile{snm}{\beamer@slide {figipr}{1}}
\newlabel{sec:Appendix}{{1}{1}{}{Doc-Start}{}}
\newlabel{sec:Appendix@cref}{{}{[1][1][]1}}
\@writefile{snm}{\beamer@slide {sec:Appendix}{1}}
\@writefile{snm}{\beamer@slide {eq:green}{1}}
\newlabel{dmatrix}{{1}{1}{}{Doc-Start}{}}
\newlabel{dmatrix@cref}{{}{[1][1][]1}}
\@writefile{snm}{\beamer@slide {dmatrix}{1}}
\newlabel{fig55}{{6}{1}{Opening of a topological pseudogap by disorder. The four plots show the same quantities as Fig.\ \ref {fig50} but for $\Delta _{\vec {B}} = \Delta _{AB} = 5$ and disorder on atoms $B$ only. \relax }{Doc-Start}{}}
\newlabel{fig55@cref}{{[figure][6][]6}{[1][1][]1}}
\@writefile{snm}{\beamer@slide {fig55}{1}}
\newlabel{figbott}{{7}{1}{Average Bott index $\langle C_B \rangle $ calculated for four different values of $\Delta _{\vec {B}}$ around $\Delta _{\vec {B}} = \Delta _{AB} = 5$ for $a = \lambda _0/20$ in a rectangular sample. The white contour shows the boundary $\langle C_B \rangle = -0.5$ between the topologically nontrivial region where $\langle C_B \rangle = -1$ (violet) and the trivial region where $\langle C_B \rangle = 0$ (red). Ensemble averaging is performed over 60 independent realizations of disorder for each graph. \relax }{Doc-Start}{}}
\newlabel{figbott@cref}{{[figure][7][]7}{[1][1][]1}}
\@writefile{snm}{\beamer@slide {figbott}{1}}
\newlabel{fig3d}{{8}{1}{(a) Phase diagram of the 2D disordered honeycomb atomic lattice in the 3D parameter space ($W$, $\omega $, $\Delta _{\vec {B}}$) for $a =\lambda _0/20$ and $\Delta _{AB} = 5$. The blue surface shows the boundary between the topologically nontrivial (inside, $\langle C_B \rangle = -1$) and trivial (outside, $\langle C_B \rangle = 0$) regions of the parameter space. The orange plane $\Delta _{\vec {B}} = \Delta _{AB}$ separates the TI phase for $\Delta _{\vec {B}} > \Delta _{AB}$ from TAI phase for $\Delta _{\vec {B}} < \Delta _{AB}$. (b) 3D density plot of average bulk IPR with the orange plane separating TI and TAI as in (a). For clarity, the values less than 0.006 are not shown (transparent). \relax }{Doc-Start}{}}
\newlabel{fig3d@cref}{{[figure][8][]8}{[1][1][]1}}
\@writefile{snm}{\beamer@slide {fig3d}{1}}
\@writefile{nav}{\headcommand {\slideentry {0}{0}{1}{1/1}{}{0}}}
\@writefile{nav}{\headcommand {\beamer@framepages {1}{1}}}
\@writefile{nav}{\headcommand {\beamer@partpages {1}{1}}}
\@writefile{nav}{\headcommand {\beamer@subsectionpages {1}{1}}}
\@writefile{nav}{\headcommand {\beamer@sectionpages {1}{1}}}
\@writefile{nav}{\headcommand {\beamer@documentpages {1}}}
\@writefile{nav}{\headcommand {\gdef \inserttotalframenumber {1}}}
\gdef \@abspage@last{1}
