This is BibTeX, Version 0.99d (TeX Live 2023/Arch Linux)
Capacity: max_strings=200000, hash_size=200000, hash_prime=170003
The top-level auxiliary file: poster_disorder_houches_2023.aux
The style file: siam.bst
Database file #1: refstopo.bib
You've used 6 entries,
            2030 wiz_defined-function locations,
            543 strings with 4634 characters,
and the built_in function-call counts, 2168 in all, are:
= -- 223
> -- 75
< -- 0
+ -- 30
- -- 24
* -- 139
:= -- 315
add.period$ -- 6
call.type$ -- 6
change.case$ -- 30
chr.to.int$ -- 0
cite$ -- 6
duplicate$ -- 128
empty$ -- 144
format.name$ -- 24
if$ -- 490
int.to.chr$ -- 0
int.to.str$ -- 6
missing$ -- 6
newline$ -- 21
num.names$ -- 12
pop$ -- 23
preamble$ -- 1
purify$ -- 24
quote$ -- 0
skip$ -- 132
stack$ -- 0
substring$ -- 122
swap$ -- 74
text.length$ -- 0
text.prefix$ -- 0
top$ -- 0
type$ -- 24
warning$ -- 0
while$ -- 20
width$ -- 7
write$ -- 56
